DACS a/s 							Richard Wagner                                    
rw.dacs.dk


================================================================================
READ DATA
================================================================================

Master -> Slave                                             
___________________________________________________________________________

[01][01][01] [CPU] [02] [CPU] [OP1] [OP2] [NO], DATA, ..... , [03][LRC][04][05][05][05]
___________________________________________________________________________
	                        |     |     |     |
Read data
                                R     D     "    Block , A1 , N ,

Slave -> Master
_________________________________________________________________________________

[01][01][01] [0]  [02] [CPU] [OP1] [OP2] [NO] ,STATUS, DATA , ..... , [03] [LRC] [04][05][05][05]
_________________________________________________________________________________
                               |     |     |     |
Data (answer to RD)
		               D     B     "     "   Data1m Data2,...,DataN,

[01] start of data block can be send more times to clear receving buffer  
[05] end ogf block " "



================================================================================
READ LIST OF PARAMETERS
================================================================================

Master -> Slave                                             

[01] [CPU] [02] [CPU] R  L  [NO]  Block , Menu, A1 , A2, ... AN, [03] [LRC] [04][05]


Slave -> Master

[01] [0] [02] [CPU]  L  B  [NO] ,STATUS, Data1, ....., DataN , [03] [LRC] [04][05]



================================================================================
READ INPUTS
================================================================================

Master -> Slave                                             

[01] [CPU] [02] [CPU] R  I  [NO] [03] [LRC] [04][05]


Slave -> Master

[01] [0] [02] [CPU]  I  S  [NO] ,STATUS, Inp1, ....., InpN, [03] [LRC] [04][05]




================================================================================
READ OUTPUTS
================================================================================

Master -> Slave                                             

[01] [CPU] [02] [CPU] R  o  [NO] [03] [LRC] [04][05]


Slave -> Master

[01] [0] [02] [CPU]  O  S  [NO] ,STATUS, Out1, ....., OutN, [03] [LRC] [04][05]



================================================================================
READ STATUS
================================================================================

Master -> Slave                                             

[01] [CPU] [02] [CPU] R  S  [NO] [03] [LRC] [04][05]


Slave -> Master

[01] [0] [02] [CPU]  S  S  [NO] ,STATUS, Command, Out1, ....., OutN, 
                                              Inp1, .. ,InpN,  [03] [LRC] [04][05]



================================================================================
READ REPORT
================================================================================

Master -> Slave                                             

[01] [CPU] [02] [CPU] R  R  [NO], DATE, RP1, n,  [03] [LRC] [04][05]
      
     RP1 start adress
     n   no of param.(max.15)

Slave -> Master

[01] [0] [02] [CPU]  R  B [NO], STATUS, DATE, Rdata1, ..., RdataN [03] [LRC] [04][05]


Slave -> Master

[01] [0] [02] [CPU]  R  N [NO], STATUS, DATE,[03] [LRC] [04][05]

      answer if no report found


================================================================================
WRITE DATA
================================================================================

Master -> Slave                                             

[01] [CPU] [02] [CPU] W  D  [NO]  Block , Menu, A1 , n, Data1, ... DataN, [03] [LRC] [04][05]


Slave -> Master

[01] [0] [02] [CPU]  O  K  [NO] ,STATUS, [03] [LRC] [04][05]



================================================================================
WRITE TEXT
================================================================================

Master -> Slave                                             

[01] [CPU] [02] [CPU] W  T  [NO] ,BufNo, 'Text string for BufNo' [03] [LRC] [04][05]


Slave -> Master

[01] [0] [02] [CPU]  O  K  [NO] ,STATUS, [03] [LRC] [04][05]



================================================================================
READ TEXT
================================================================================

Master -> Slave                                             

[01] [CPU] [02] [CPU] R  T  [NO] , BufNo, [03] [LRC] [04][05]


Slave -> Master

[01] [0] [02] [CPU]  T  B  [NO] ,STATUS,'Text string from BufNo' [03] [LRC] [04][05]





================================================================================

-----------NOT IN USE-----------------------------------------------------------

================================================================================
READ DATA - HEX MODE
================================================================================

Master -> Slave                                             

byte------1----2-----3----4-----5-----6-----7-----8------9----10--11---12---13--14-------
__________________________________________________________________________________________

[01][01][01] [CPU] [02] [CPU] [OP1] [OP2] [NO] [Block] [Adr] [n] [03][LRC][04][05][05][05]
__________________________________________________________________________________________
	                        |     |     |     |      |
Read data
                                R     X     "    Block   start adress


Slave -> Master

byte-----1----2----3----4-----5-----6----7------8----------9---------10--------11---
_____________________________________________________________________________________

[01][01][01] [0] [02] [CPU] [OP1] [OP2] [NO] [STATUS_H] [STATUS_L] [DATA_H_1] [DATA_L_1]


---------------------------------10+2*(n-1)--11+2*(n-1)--10+2*n--...

                              ...[DATA_H_n]  [DATA_L_n]  [03] [LRC] [04][05][05][05]

_____________________________________________________________________________________
                               |     |     |     |
Data (answer to RD)
		               X     B     "     "   

================================================================================
WRITE DATA - HEX MODE
================================================================================


Master -> Slave                                             

..[01] [CPU] [02] [CPU] 
  W  D [NO] [Block] [Menu] [Adr1] [n] [Data_H_1]...[Data_L_n] [03] [LRC] [04][05]


Slave -> Master

..[01] [0] [02] [CPU]  
  O  K  [NO] [STATUS_H] [STATUS_L] [03] [LRC] [04][05]..





================================================================================
WRITE DATA TO ALL SLAVES X
================================================================================

Master -> Slave                                             

[01] [CPU] [02] [CPU] W  D  [NO]  Block , Type_dev, A1 , n, Data1, ... DataN, [03] [LRC] [04][05]

CPU 	- 00x - master
	- 01x..FEx - slaver adresses
	- FFx - to all devices

  Type_dev
	    { max 8 typu device dev_T0 az dev_T7 }
255  all types of devices (Block not used, data goes to spec.block x "main data block"
		255 int values like date,weekdate, time, outside temp., wind speed...)

1  TypA56  = dev_T1;   { system A56 je typu dev_T1 }
2  TypA50  = dev_T2;   { system A50 je typu dev_T2 }
3  TypA50S = dev_T3;
4  TypU1   = dev_T4;   { UCS version 4L and 3L1U}
5  TypU2   = dev_T5;   { UCS version 1L3U } {ACS6}
6  TypU3   = dev_T6;   { UCS version 2L2U } {FW42}
7  TypA54  = dev_T7;   { system A54 }
	

	

Slave -> Master

no answer




---------------------------------------------------------------------------------
STATUS
---------------------------------------------------------------------------------

Status is ASCII value of controller status coded in binary form

byte    -------STATUS_H-------- --------STATUS_L-------
bit     16 15 14 13 12 11 10  9  8  7  6  5  4  3  2  1

       |..| A| M| L|..|..|..|..|  |  |  |  |  |  |  |  | 

                                                   #  #   alarm atribute (0-3)
                                 #  #  #  #  #  #         alarm type     (0-63)
        ..          .. .. .. ..                           not used 
                  #                                       flag = 1 ALARM
               #                                          flag = 1 MANUAL
            #                                             flag = 1 AUTO 



================================================================================
COM TERMINAL - ACS6
================================================================================

Master -> Slave                                             
___________________________________________________________________________

[01][01][01] [CPU] [02] [CPU] [OP1] [OP2] [NO] [X] [03][LRC][04][05][05][05]
___________________________________________________________________________
	                        |     |     |    |
Read data
                                P     D     "    X    ACSCII kode for keys


Slave -> Master
_________________________________________________________________________________

[01][01][01] [0]  [02] [CPU] [OP1] [OP2] [NO] [PSTATUS] DATA80 [03][LRC][04][05][05][05]
_________________________________________________________________________________
                               |     |     |     |
Data (answer to RD)
		               P     R     "   Proces status
                                                       
                                                              DATA80 80 ACSII for display

PSTATUS
byte    -------STATUS_H-------- --------STATUS_L-------
bit     16 15 14 13 12 11 10  9  8  7  6  5  4  3  2  1

       |1| A| M| L| S|SL|..|..|..|CB|  |  |  |  |  |  | 

                                    #  #  #  #  #  #  #   cursor position (0-127)
                                  #                       cursor blinking

                       #            lang buzz signal
                    #               buzz signal                                        
                  #                                       flag = 1 ALARM
               #                                          flag = 1 MANUAL
            #                                             flag = 1 AUTO 

           