Device=MAX17047
Title = Sample Project
Capacity=782
QRTable00=0x1F2F
QRTable10=0x1F00
QRTable20=0x1406
QRTable30=0xD00
Vempty=0x9C5C
FullSOCthr=0x4600
RCOMP0=0x3F
TempCo=0x2946
TermCurr=0x100
TempNom=0x1400
FilterCFG=0x87A4
0x8080
0x0802
0xE927
0x7432
0x95C1
0xAA1B
0xC041
0xCC62
0xD9BF
0xE68C
0xF7CF
0x15BC
0x3AE1
0x55F7
0x777F
0xBF94
0x8080
0xAE90
0xB740
0xB950
0xBAA0
0xBC00
0xBCC0
0xBD90
0xBE60
0xBF70
0xC150
0xC3A0
0xC550
0xC770
0xCBF0
0xD090
0x0020
0x0270
0x1320
0x0C10
0x11B0
0x2410
0x2620
0x1BF0
0x18C0
0x0CF0
0x0BC0
0x0E10
0x0F70
0x07F0
0x0940
0x0940
0x0100
0x0100
0x0100
0x0100
0x0100
0x0100
0x0100
0x0100
0x0100
0x0100
0x0100
0x0100
0x0100
0x0100
0x0100
0x0100
0x8000
0x9002
0x4013
0x500C
0xA011
0x0024
0xC026
0x901B
0x6018
0x700C
0x500B
0xA00E
0x500F
0x7007
0xF009
0x9009
0x0208
0x27E9
0x3274
0xC195
0x1BAA
0x41C0
0x62CC
0xBFD9
0x8CE6
0xCFF7
0xBC15
0xE13A
0xF755
0x7F77
0x94BF
0x9409
